Mon 04 14:16:25
Mon 04 14:17:01
Mon 04 14:17:16
Mon 04 14:17:31
Mon 04 14:18:01
Mon 04 14:18:16
Mon 04 14:18:31
Mon 04 14:19:01
Mon 04 14:19:16
Mon 04 14:19:31
Mon 04 14:20:01
Mon 04 14:20:16
Mon 04 14:20:31
Mon 04 14:21:01
Mon 04 14:21:16
Mon 04 14:21:31
Mon 04 14:22:01
Mon 04 14:22:16
Mon 04 14:22:31
Mon 04 14:23:02
Mon 04 14:23:17
Mon 04 14:23:32
Mon 04 14:24:01
Mon 04 14:24:16
Mon 04 14:24:31
Mon 04 14:25:01
Mon 04 14:25:16
Mon 04 14:25:31
Mon 04 14:26:48
Mon 04 14:27:01
Mon 04 14:27:03
Mon 04 14:27:16
Mon 04 14:27:18
Mon 04 14:27:31
Mon 04 14:28:01
Mon 04 14:28:16
Mon 04 14:28:31
Mon 04 14:29:01
Mon 04 14:29:16
Mon 04 14:29:31
Mon 04 14:30:02
Mon 04 14:30:17
Mon 04 14:30:32
Mon 04 14:31:01
Mon 04 14:31:16
Mon 04 14:31:31
Mon 04 14:32:01
Mon 04 14:32:16
Mon 04 14:32:31
Mon 04 14:33:01
Mon 04 14:33:16
Mon 04 14:33:31
Mon 04 14:34:01
Mon 04 14:34:16
Mon 04 14:34:31
Mon 04 14:35:01
Mon 04 14:35:16
Mon 04 14:35:31
Mon 04 14:36:01
Mon 04 14:36:17
Mon 04 14:36:32
Mon 04 14:37:01
Mon 04 14:37:16
Mon 04 14:37:31
Mon 04 14:38:01
Mon 04 14:38:16
Mon 04 14:38:31
Mon 04 14:39:01
Mon 04 14:39:16
Mon 04 14:39:31
Mon 04 14:40:01
Mon 04 14:40:16
Mon 04 14:40:31
Mon 04 14:41:01
Mon 04 14:41:16
Mon 04 14:41:31
Mon 04 14:42:01
Mon 04 14:42:16
Mon 04 14:42:31
Mon 04 14:43:01
Mon 04 14:43:16
Mon 04 14:43:31
Mon 04 14:44:01
Mon 04 14:44:16
Mon 04 14:44:31
Mon 04 14:45:01
Mon 04 14:45:16
Mon 04 14:45:31
Mon 04 14:46:02
Mon 04 14:46:17
Mon 04 14:46:32
Mon 04 14:47:01
Mon 04 14:47:16
Mon 04 14:47:31
Mon 04 14:48:01
Mon 04 14:48:16
Mon 04 14:48:31
Mon 04 14:49:01
Mon 04 14:49:16
Mon 04 14:49:31
Mon 04 14:50:01
Mon 04 14:50:16
Mon 04 14:50:31
Mon 04 14:51:01
Mon 04 14:51:16
Mon 04 14:51:31
Mon 04 14:52:01
Mon 04 14:52:16
Mon 04 14:52:31
Mon 04 14:53:01
Mon 04 14:53:16
Mon 04 14:53:31
Mon 04 14:54:01
Mon 04 14:54:16
Mon 04 14:54:31
Mon 04 14:55:01
Mon 04 14:55:16
Mon 04 14:55:31
Mon 04 14:56:01
Mon 04 14:56:17
Mon 04 14:56:32
Mon 04 14:57:01
Mon 04 14:57:16
Mon 04 14:57:31
Mon 04 14:58:01
Mon 04 14:58:16
Mon 04 14:58:31
Mon 04 14:59:01
Mon 04 14:59:16
Mon 04 14:59:31
Mon 04 15:00:01
Mon 04 15:00:16
Mon 04 15:00:31
Mon 04 15:01:01
Mon 04 15:01:16
Mon 04 15:01:31
Mon 04 15:02:01
Mon 04 15:02:16
Mon 04 15:02:31
Mon 04 15:03:01
Mon 04 15:03:16
Mon 04 15:03:31
Mon 04 15:04:01
Mon 04 15:04:16
Mon 04 15:04:31
Mon 04 15:05:01
Mon 04 15:05:16
Mon 04 15:05:31
Mon 04 15:06:01
Mon 04 15:06:16
Mon 04 15:06:31
Mon 04 15:07:01
Mon 04 15:07:16
Mon 04 15:07:31
Mon 04 15:08:01
Mon 04 15:08:16
Mon 04 15:08:31
Mon 04 15:09:02
Mon 04 15:09:17
Mon 04 15:09:32
Mon 04 15:10:01
Mon 04 15:10:16
Mon 04 15:10:31
Mon 04 15:11:01
Mon 04 15:11:16
Mon 04 15:11:31
Mon 04 15:12:01
Mon 04 15:12:16
Mon 04 15:12:31
Mon 04 15:13:01
Mon 04 15:13:16
Mon 04 15:13:31
Mon 04 15:14:01
Mon 04 15:14:16
Mon 04 15:14:31
Mon 04 15:15:01
Mon 04 15:15:16
Mon 04 15:15:31
Mon 04 15:16:01
Mon 04 15:16:16
Mon 04 15:16:31
Mon 04 15:17:01
Mon 04 15:17:16
Mon 04 15:17:31
Mon 04 15:18:01
Mon 04 15:18:16
Mon 04 15:18:31
Mon 04 15:19:01
Mon 04 15:19:16
Mon 04 15:19:31
Mon 04 15:20:01
Mon 04 15:20:17
Mon 04 15:20:32
Mon 04 15:21:01
Mon 04 15:21:16
Mon 04 15:21:31
Mon 04 15:22:01
Mon 04 15:22:16
Mon 04 15:22:31
Mon 04 15:23:01
Mon 04 15:23:16
Mon 04 15:23:31
Mon 04 15:24:01
Mon 04 15:24:16
Mon 04 15:24:31
Mon 04 15:25:01
Mon 04 15:25:16
Mon 04 15:25:31
Mon 04 15:26:01
Mon 04 15:26:16
Mon 04 15:26:31
Mon 04 15:27:01
Mon 04 15:27:16
Mon 04 15:27:31
Mon 04 15:28:01
Mon 04 15:28:16
Mon 04 15:28:31
Mon 04 14:26:01
Mon 04 14:26:16
Mon 04 14:26:31
Mon 04 14:27:01
Mon 04 14:27:16
Mon 04 14:27:31
Mon 04 14:28:01
Mon 04 16:47:32
Mon 04 16:48:01
Mon 04 16:48:33
Mon 04 16:48:48
Mon 04 16:49:03
Mon 04 16:49:18
Mon 04 16:49:33
Mon 04 16:50:01
Mon 04 16:50:16
Mon 04 16:50:31
Mon 04 16:51:01
Mon 04 16:51:16
Mon 04 16:51:31
Mon 04 16:52:01
Mon 04 16:52:16
Mon 04 16:52:31
Mon 04 16:53:01
Mon 04 16:53:16
Mon 04 16:53:31
Mon 04 16:54:01
Mon 04 16:48:01
Mon 04 16:48:16
Mon 04 16:48:31
Mon 04 16:49:01
Mon 04 16:49:16
Mon 04 16:49:31
Mon 04 16:50:01
Mon 04 16:50:16
Mon 04 16:50:31
Mon 04 16:51:01
Mon 04 16:51:16
Mon 04 16:51:31
Mon 11 11:44:28
Mon 11 11:44:43
Mon 11 11:44:58
Mon 11 11:45:01
Mon 11 11:45:16
Mon 11 11:45:31
Mon 11 11:46:01
Mon 11 11:46:16
Mon 11 11:46:31
Mon 11 11:47:01
Mon 11 11:47:16
Mon 11 11:47:31
Mon 11 11:48:01
Mon 11 11:48:16
Mon 11 11:48:31
Mon 11 11:49:01
Mon 11 11:49:17
Mon 11 11:49:32
Mon 11 11:50:01
Mon 11 11:50:16
Mon 11 11:50:31
Mon 11 11:51:01
Mon 11 11:51:16
Mon 11 11:51:31
Mon 11 11:52:01
Mon 11 11:52:16
Mon 11 11:52:31
Mon 11 11:53:01
Mon 11 11:53:16
Mon 11 11:53:31
Mon 11 11:54:01
Mon 11 11:54:16
Mon 11 11:54:31
Mon 11 11:55:01
Mon 11 11:55:16
Mon 11 11:55:31
Mon 11 11:56:01
Mon 11 11:56:16
Mon 11 11:56:31
Mon 11 11:57:01
Mon 11 11:57:16
Mon 11 11:57:32
Mon 11 11:58:01
Mon 11 11:58:16
Mon 11 11:58:31
Mon 11 11:59:01
Mon 11 11:59:16
Mon 11 11:59:31
Mon 11 12:00:01
Mon 11 12:00:16
Mon 11 12:00:31
Mon 11 12:01:01
Mon 11 12:01:16
Mon 11 12:01:31
Mon 11 12:02:01
Mon 11 12:02:16
Mon 11 12:02:31
Mon 11 12:03:01
Mon 11 12:03:16
Mon 11 12:03:31
Mon 11 12:04:02
Mon 11 12:04:17
Mon 11 12:04:32
Mon 11 12:05:01
Mon 11 12:05:16
Mon 11 12:05:31
Mon 11 12:06:01
Mon 11 12:06:16
Mon 11 12:06:31
Mon 11 12:07:01
Mon 11 12:07:16
Mon 11 12:07:31
Mon 11 12:08:01
Mon 11 12:08:16
Mon 11 12:08:31
Mon 11 12:09:01
Mon 11 12:09:17
Mon 11 12:09:32
Mon 11 12:10:01
Mon 11 12:10:16
Mon 11 12:10:31
Mon 11 12:11:01
Mon 11 12:11:16
Mon 11 12:11:31
Mon 11 12:12:01
Mon 11 12:12:16
Mon 11 12:12:31
Mon 11 12:13:01
Mon 11 12:13:16
Mon 11 12:13:31
Mon 11 12:14:01
Mon 11 12:14:16
Mon 11 12:14:31
Mon 11 12:15:01
Mon 11 12:15:17
Mon 11 12:15:32
Mon 11 12:16:01
Mon 11 12:16:16
Mon 11 12:16:31
Mon 11 12:17:01
Mon 11 12:17:16
Mon 11 12:17:31
Mon 11 12:18:01
Mon 11 12:18:16
Mon 11 12:18:31
Mon 11 12:19:01
Mon 11 12:19:16
Mon 11 12:19:31
Mon 11 12:20:01
Mon 11 12:20:16
Mon 11 12:20:32
Mon 11 12:21:01
Mon 11 12:21:16
Mon 11 12:21:31
Mon 11 12:22:01
Mon 11 12:22:16
Mon 11 12:22:31
Mon 11 12:23:01
Mon 11 12:23:16
Mon 11 12:23:31
Mon 11 12:24:01
Mon 11 12:24:16
Mon 11 12:24:31
Mon 11 12:25:02
Mon 11 12:25:17
Mon 11 12:25:32
Mon 11 12:26:01
Mon 11 12:26:16
Mon 11 12:26:31
Mon 11 12:27:01
Mon 11 12:27:16
Mon 11 12:27:31
Mon 11 12:28:01
Mon 11 12:28:16
Mon 11 12:28:31
Mon 11 12:29:01
Mon 11 12:29:16
Mon 11 12:29:31
Mon 11 12:30:01
Mon 11 12:30:16
Mon 11 12:30:31
Mon 11 12:31:01
Mon 11 12:31:16
Mon 11 12:31:31
Mon 11 12:32:01
Mon 11 12:32:16
Mon 11 12:32:31
Mon 11 12:33:01
Mon 11 12:33:16
Mon 11 12:33:31
Mon 11 12:34:01
Mon 11 12:34:16
Mon 11 12:34:31
Mon 11 12:35:01
Mon 11 12:35:16
Mon 11 12:35:32
Mon 11 12:36:01
Mon 11 12:36:16
Mon 11 12:36:31
Mon 11 12:37:01
Mon 11 12:37:16
Mon 11 12:37:31
Mon 11 12:38:01
Mon 11 12:38:16
Mon 11 12:38:31
Mon 11 12:39:01
Mon 11 12:39:16
Mon 11 12:39:31
Mon 11 12:40:01
Mon 11 12:40:16
Mon 11 12:40:31
Mon 11 12:41:01
Mon 11 12:41:16
Mon 11 12:41:31
Mon 11 12:42:02
Mon 11 12:42:17
Mon 11 12:42:32
Mon 11 12:43:01
Mon 11 12:43:16
Mon 11 12:43:31
Mon 11 12:44:01
Mon 11 12:44:16
Mon 11 12:44:31
Mon 11 12:45:01
Mon 11 12:45:16
Mon 11 12:45:31
Mon 11 12:46:01
Mon 11 12:46:16
Mon 11 12:46:31
Mon 11 12:47:01
Mon 11 12:47:16
Mon 11 12:47:31
Mon 11 12:48:02
Mon 11 12:48:17
Mon 11 12:48:32
Mon 11 12:49:01
Mon 11 12:49:16
Mon 11 12:49:31
Mon 11 12:50:01
Mon 11 12:50:16
Mon 11 12:50:31
Mon 11 12:51:01
Mon 11 12:51:16
Mon 11 12:51:31
Mon 11 12:52:01
Mon 11 12:52:16
Mon 11 12:52:31
Mon 11 12:53:01
Mon 11 12:53:16
Mon 11 12:53:31
Mon 11 12:54:02
Mon 11 12:54:17
Mon 11 12:54:32
Mon 11 12:55:01
Mon 11 12:55:16
Mon 11 12:55:31
Mon 11 12:56:01
Mon 11 12:56:16
Mon 11 12:56:31
Mon 11 12:57:01
Mon 11 12:57:16
Mon 11 12:57:31
Mon 11 12:58:01
Mon 11 12:58:16
Mon 11 12:58:31
Mon 11 12:59:01
Mon 11 12:59:16
Mon 11 12:59:31
Mon 11 13:00:01
Mon 11 13:00:17
Mon 11 13:00:32
Mon 11 13:01:01
Mon 11 13:01:16
Mon 11 13:01:31
Mon 11 13:02:01
Mon 11 13:02:16
Mon 11 13:02:31
Mon 11 13:03:01
Mon 11 13:03:16
Mon 11 13:03:31
Mon 11 13:04:01
Mon 11 13:04:16
Mon 11 13:04:31
Mon 11 13:05:01
Mon 11 13:05:16
Mon 11 13:05:31
Mon 11 13:06:01
Mon 11 13:06:16
Mon 11 13:06:32
Mon 11 13:07:01
Mon 11 13:07:16
Mon 11 13:07:31
Mon 11 13:08:01
Mon 11 13:08:16
Mon 11 13:08:31
Mon 11 13:09:01
Mon 11 13:09:16
Mon 11 13:09:31
Mon 11 13:10:01
Mon 11 13:10:16
Mon 11 13:10:31
Mon 11 13:11:01
Mon 11 13:11:16
Mon 11 13:11:31
Mon 11 13:12:01
Mon 11 13:12:16
Mon 11 13:12:32
Mon 11 13:13:01
Mon 11 13:13:16
Mon 11 13:13:31
Mon 11 13:14:01
Mon 11 13:14:16
Mon 11 13:14:31
Mon 11 13:15:01
Mon 11 13:15:16
Mon 11 13:15:31
Mon 11 13:16:01
Mon 11 13:16:16
Mon 11 13:16:31
Mon 11 13:17:01
Mon 11 13:17:16
Mon 11 13:17:31
Mon 11 13:18:01
Mon 11 13:18:16
Mon 11 13:18:31
Mon 11 13:19:02
Mon 11 13:19:17
Mon 11 13:19:32
Mon 11 13:20:01
Mon 11 13:20:16
Mon 11 13:20:31
Mon 11 13:21:01
Mon 11 13:21:16
Mon 11 13:21:31
Mon 11 13:22:01
Mon 11 13:22:16
Mon 11 13:22:31
Mon 11 13:23:01
Mon 11 13:23:16
Mon 11 13:23:31
Mon 11 13:24:01
Mon 11 13:24:16
Mon 11 13:24:31
Mon 11 13:25:02
Mon 11 13:25:17
Mon 11 13:25:32
Mon 11 13:26:01
Mon 11 13:26:16
Mon 11 13:26:31
Mon 11 13:27:01
Mon 11 13:27:16
Mon 11 13:27:31
Mon 11 13:28:01
Mon 11 13:28:16
Mon 11 13:28:31
Mon 11 13:29:01
Mon 11 13:29:16
Mon 11 13:29:31
Mon 11 13:30:01
Mon 11 13:30:16
Mon 11 13:30:31
Mon 11 13:31:01
Mon 11 13:31:17
Mon 11 13:31:32
Mon 11 13:32:01
Mon 11 13:32:16
Mon 11 13:32:31
Mon 11 13:33:01
Mon 11 13:33:16
Mon 11 13:33:31
Mon 11 13:34:01
Mon 11 13:34:16
Mon 11 13:34:31
Mon 11 13:35:01
Mon 11 13:35:16
Mon 11 13:35:31
Mon 11 13:36:01
Mon 11 13:36:16
Mon 11 13:36:31
Mon 11 13:37:01
Mon 11 13:37:16
Mon 11 13:37:32
Mon 11 13:38:01
Mon 11 13:38:16
Mon 11 13:38:31
Mon 11 13:39:01
Mon 11 13:39:16
Mon 11 13:39:31
Mon 11 13:40:01
Mon 11 13:40:16
Mon 11 13:40:31
Mon 11 13:41:01
Mon 11 13:41:16
Mon 11 13:41:31
Mon 11 13:42:01
Mon 11 13:42:16
Mon 11 13:42:31
Mon 11 13:43:01
Mon 11 13:43:16
Mon 11 13:43:31
Mon 11 13:44:02
Mon 11 13:44:17
Mon 11 13:44:32
Mon 11 13:45:01
Mon 11 13:45:16
Mon 11 13:45:31
Mon 11 13:46:01
Mon 11 13:46:16
Mon 11 13:46:31
Mon 11 13:47:01
Mon 11 13:47:16
Mon 11 13:47:31
Mon 11 13:48:01
Mon 11 13:48:16
Mon 11 13:48:31
Mon 11 13:49:01
Mon 11 13:49:16
Mon 11 13:49:31
Mon 11 13:50:02
Mon 11 13:50:17
Mon 11 13:50:32
Mon 11 13:51:01
Mon 11 13:51:16
Mon 11 13:51:31
Mon 11 13:52:01
Mon 11 13:52:16
Mon 11 13:52:31
Mon 11 13:53:01
Mon 11 13:53:16
Mon 11 13:53:31
Mon 11 13:54:01
Mon 11 13:54:16
Mon 11 13:54:31
Mon 11 13:55:01
Mon 11 13:55:16
Mon 11 13:55:31
Mon 11 13:56:01
Mon 11 13:56:16
Mon 11 13:56:31
Mon 11 13:57:01
Mon 11 13:57:16
Mon 11 13:57:31
Mon 11 13:58:01
Mon 11 13:58:16
Mon 11 13:58:31
Mon 11 13:59:01
Mon 11 13:59:16
Mon 11 13:59:31
Mon 11 14:00:01
Mon 11 14:00:16
Mon 11 14:00:31
Mon 11 14:01:01
Mon 11 14:01:16
Mon 11 14:01:31
Mon 11 14:02:01
Mon 11 14:02:16
Mon 11 14:02:31
Mon 11 14:03:01
Mon 11 14:03:16
Mon 11 14:03:31
Mon 11 14:04:01
Mon 11 14:04:16
Mon 11 14:04:31
Mon 11 14:05:01
Mon 11 14:05:16
Mon 11 14:05:31
Mon 11 14:06:01
Mon 11 14:06:16
Mon 11 14:06:31
Mon 11 14:07:01
Mon 11 14:07:16
Mon 11 14:07:31
Mon 11 14:08:01
Mon 11 14:08:16
Mon 11 14:08:31
Mon 11 14:09:01
Mon 11 14:09:16
Mon 11 14:09:31
Mon 11 14:10:02
Mon 11 14:10:17
Mon 11 14:10:32
Mon 11 14:11:01
Mon 11 14:11:16
Mon 11 14:11:31
Mon 11 14:12:01
Mon 11 14:12:16
Mon 11 14:12:31
Mon 11 14:13:01
Mon 11 14:13:16
Mon 11 14:13:31
Mon 11 14:14:01
Mon 11 14:14:16
Mon 11 14:14:31
Mon 11 14:15:01
Mon 11 14:15:16
Mon 11 14:15:31
Mon 11 14:16:01
Mon 11 14:16:16
Mon 11 14:16:31
Mon 11 14:17:01
Mon 11 14:17:16
Mon 11 14:17:31
Mon 11 14:18:01
Mon 11 14:18:16
Mon 11 14:18:31
Mon 11 14:19:01
Mon 11 14:19:16
Mon 11 14:19:31
Mon 11 14:20:01
Mon 11 14:20:16
Mon 11 14:20:31
Mon 11 14:21:01
Mon 11 14:21:16
Mon 11 14:21:31
Mon 11 14:22:02
Mon 11 14:22:17
Mon 11 14:22:32
Mon 11 14:23:01
Mon 11 14:23:16
Mon 11 14:23:31
Mon 11 14:24:01
Mon 11 14:24:16
Mon 11 14:24:31
Mon 11 14:25:01
Mon 11 14:25:16
Mon 11 14:25:31
Mon 11 14:26:01
Mon 11 14:26:16
Mon 11 14:26:31
Mon 11 14:27:01
Mon 11 14:27:16
Mon 11 14:27:31
Mon 11 14:28:01
Mon 11 14:28:16
Mon 11 14:28:31
Mon 11 14:29:01
Mon 11 14:29:16
Mon 11 14:29:31
Mon 11 14:30:01
Mon 11 14:30:16
Mon 11 14:30:31
Mon 11 14:31:01
Mon 11 14:31:16
Mon 11 14:31:31
Mon 11 14:32:01
Mon 11 14:32:16
Mon 11 14:32:31
Mon 11 14:33:01
Mon 11 14:33:16
Mon 11 14:33:31
Mon 11 14:34:01
Mon 11 14:34:16
Mon 11 14:34:32
Mon 11 14:35:01
Mon 11 14:35:16
Mon 11 14:35:31
Mon 11 14:36:01
Mon 11 14:36:16
Mon 11 14:36:31
Mon 11 14:37:01
Mon 11 14:37:16
Mon 11 14:37:31
Mon 11 14:38:01
Mon 11 14:38:16
Mon 11 14:38:31
Mon 11 14:39:01
Mon 11 14:39:16
Mon 11 14:39:31
Mon 11 14:40:01
Mon 11 14:40:16
Mon 11 14:40:31
Mon 11 14:41:01
Mon 11 14:41:16
Mon 11 14:41:31
Mon 11 14:42:01
Mon 11 14:42:16
Mon 11 14:42:31
Mon 11 14:43:01
Mon 11 14:43:16
Mon 11 14:43:31
Mon 11 14:44:01
Mon 11 14:44:16
Mon 11 14:44:31
Mon 11 14:45:01
Mon 11 14:45:16
Mon 11 14:45:31
Mon 11 14:46:01
Mon 11 14:46:16
Mon 11 14:46:31
Mon 11 14:47:01
Mon 11 14:47:16
Mon 11 14:47:31
Mon 11 14:48:01
Mon 11 14:48:17
Mon 11 14:48:32
Mon 11 14:49:01
Mon 11 14:49:16
Mon 11 14:49:31
Mon 11 14:50:01
Mon 11 14:50:16
Mon 11 14:50:31
Mon 11 14:51:01
Mon 11 14:51:16
Mon 11 14:51:31
Mon 11 14:52:01
Mon 11 14:52:16
Mon 11 14:52:31
Mon 11 14:53:01
Mon 11 14:53:16
Mon 11 14:53:31
Mon 11 14:54:01
Mon 11 14:54:16
Mon 11 14:54:31
Mon 11 14:55:01
Mon 11 14:55:16
Mon 11 14:55:31
Mon 11 14:56:01
Mon 11 14:56:16
Mon 11 14:56:31
Mon 11 14:57:01
Mon 11 14:57:16
Mon 11 14:57:31
Mon 11 14:58:01
Mon 11 14:58:16
Mon 11 14:58:31
Mon 11 14:59:01
Mon 11 14:59:16
Mon 11 14:59:31
Mon 11 15:00:01
Mon 11 15:00:16
Mon 11 15:00:31
Mon 11 15:01:01
Mon 11 15:01:16
Mon 11 15:01:31
Mon 11 15:02:01
Mon 11 15:02:17
Mon 11 15:02:32
Mon 11 15:03:01
Mon 11 15:03:16
Mon 11 15:03:31
Mon 11 15:04:01
Mon 11 15:04:16
Mon 11 15:04:31
Mon 11 15:05:01
Mon 11 15:05:16
Mon 11 15:05:31
Mon 11 15:06:01
Mon 11 15:06:16
Mon 11 15:06:31
Mon 11 15:07:01
Mon 11 15:07:16
Mon 11 15:07:31
Mon 11 15:08:01
Mon 11 15:08:16
Mon 11 15:08:31
Mon 11 15:09:01
Mon 11 15:09:16
Mon 11 15:09:31
Mon 11 15:10:01
Mon 11 15:10:16
Mon 11 15:10:31
Mon 11 15:11:01
Mon 11 15:11:16
Mon 11 15:11:31
Mon 11 15:12:01
Mon 11 15:12:16
Mon 11 15:12:31
Mon 11 15:13:01
Mon 11 15:13:16
Mon 11 15:13:31
Mon 04 16:48:01
Mon 04 16:48:16
Fri 15 13:08:51
Fri 15 13:09:06
Fri 15 13:09:21
Fri 15 13:09:36
Fri 15 13:10:01
Fri 15 13:10:16
Fri 15 13:10:31
Fri 15 13:11:01
Fri 15 13:11:16
Fri 15 13:11:31
Fri 15 13:12:01
Fri 15 13:12:16
Fri 15 13:12:31
Fri 15 13:13:01
Fri 15 13:13:16
Fri 15 13:13:31
Fri 15 13:14:01
Fri 15 13:14:16
Fri 15 13:14:31
Fri 15 13:15:01
Fri 15 13:15:16
Fri 15 13:15:31
Fri 15 13:16:01
Fri 15 13:16:16
Fri 15 13:16:31
Fri 15 13:17:01
Fri 15 13:17:16
Fri 15 13:17:31
Fri 15 13:18:01
Fri 15 13:18:17
Fri 15 13:18:32
Fri 15 13:19:01
Fri 15 13:19:16
Fri 15 13:19:31
Fri 15 13:20:01
Fri 15 13:20:16
Fri 15 13:20:31
Fri 15 13:21:01
Fri 15 13:21:16
Fri 15 13:21:31
Fri 15 13:22:01
Fri 15 13:22:16
Fri 15 13:22:31
Fri 15 13:23:01
Fri 15 13:23:16
Fri 15 13:23:31
Fri 15 13:24:01
Fri 15 13:24:16
Fri 15 13:24:31
Fri 15 13:25:01
Fri 15 13:25:16
Fri 15 13:25:31
Fri 15 13:26:01
Fri 15 13:26:16
Fri 15 13:26:31
Fri 15 13:27:01
Fri 15 13:27:16
Fri 15 13:27:31
Fri 15 13:28:01
Fri 15 13:28:16
Fri 15 13:28:31
Fri 15 13:29:01
Fri 15 13:29:16
Fri 15 13:29:31
Fri 15 13:30:01
Fri 15 13:30:16
Fri 15 13:30:31
Fri 15 13:31:01
Fri 15 13:31:16
Fri 15 13:31:32
Fri 15 13:32:01
Fri 15 13:32:16
Fri 15 13:32:31
Fri 15 13:33:01
Fri 15 13:33:16
Fri 15 13:33:31
Fri 15 13:34:01
Fri 15 13:34:16
Fri 15 13:34:31
Fri 15 13:35:01
Fri 15 13:35:16
Fri 15 13:35:31
Fri 15 13:36:01
Fri 15 13:36:16
Fri 15 13:36:31
Fri 15 13:37:01
Fri 15 13:37:16
Fri 15 13:37:31
Fri 15 13:38:01
Fri 15 13:38:16
Fri 15 13:38:31
Fri 15 13:39:01
Fri 15 13:39:16
Fri 15 13:39:31
Fri 15 13:40:01
Fri 15 13:40:16
Fri 15 13:40:31
Fri 15 13:41:01
Fri 15 13:41:16
Fri 15 13:41:31
Fri 15 13:42:01
Fri 15 13:42:16
Fri 15 13:42:31
Fri 15 13:43:01
Fri 15 13:43:16
Fri 15 13:43:31
Fri 15 13:44:01
Fri 15 13:44:16
Fri 15 13:44:31
Fri 15 13:45:02
Fri 15 13:45:17
Fri 15 13:45:32
Fri 15 13:46:01
Fri 15 13:46:16
Fri 15 13:46:31
Fri 15 13:47:01
Fri 15 13:47:16
Fri 15 13:47:31
Fri 15 13:48:01
Fri 15 13:48:16
Fri 15 13:48:31
Fri 15 13:49:01
Fri 15 13:49:16
Fri 15 13:49:31
Fri 15 13:50:01
Fri 15 13:50:16
Fri 15 13:50:31
Fri 15 13:51:01
Fri 15 13:51:16
Fri 15 13:51:31
Fri 15 13:52:01
Fri 15 13:52:16
Fri 15 13:52:31
Fri 15 13:53:01
Fri 15 13:53:16
Fri 15 13:53:31
Fri 15 13:54:02
Fri 15 13:54:17
Fri 15 13:54:32
Fri 15 13:55:01
Fri 15 13:55:16
Fri 15 13:55:31
Fri 15 13:56:01
Fri 15 13:56:16
Fri 15 13:56:31
Fri 15 13:57:01
Fri 15 13:57:16
Fri 15 13:57:31
Fri 15 13:58:01
Fri 15 13:58:16
Fri 15 13:58:31
Fri 15 13:59:01
Fri 15 13:59:16
Fri 15 13:59:31
Fri 15 14:00:01
Fri 15 14:00:16
Fri 15 14:00:31
Fri 15 14:01:01
Fri 15 14:01:16
Fri 15 14:01:31
Fri 15 14:02:01
Fri 15 14:02:16
Fri 15 14:02:31
Fri 15 14:03:01
Fri 15 14:03:16
Fri 15 14:03:31
Fri 15 14:04:01
Fri 15 14:04:16
Fri 15 14:04:31
Fri 15 14:05:01
Fri 15 14:05:16
Fri 15 14:05:31
Fri 15 14:06:02
Fri 15 14:06:17
Fri 15 14:06:32
Fri 15 14:07:01
Fri 15 14:07:16
Fri 15 14:07:31
Fri 15 14:08:01
Fri 15 14:08:16
Fri 15 14:08:31
Fri 15 14:09:01
Fri 15 14:09:16
Fri 15 14:09:31
Fri 15 14:10:01
Fri 15 14:10:16
Fri 15 14:10:31
Fri 15 14:11:01
Fri 15 14:11:16
Fri 15 14:11:31
Fri 15 14:12:01
Fri 15 14:12:16
Fri 15 14:12:31
Fri 15 14:13:01
Fri 15 14:13:16
Fri 15 14:13:31
Fri 15 14:14:01
Fri 15 14:14:16
Fri 15 14:14:31
Fri 15 14:15:01
Fri 15 14:15:16
Fri 15 14:15:31
Fri 15 14:16:01
Fri 15 14:16:16
Fri 15 14:16:31
Fri 15 14:17:01
Fri 15 14:17:16
Fri 15 14:17:31
Fri 15 14:18:01
Fri 15 14:18:16
Fri 15 14:18:31
Fri 15 14:19:02
Fri 15 14:19:17
Fri 15 14:19:32
Fri 15 14:20:01
Fri 15 14:20:16
Fri 15 14:20:31
Fri 15 14:21:01
Fri 15 14:21:16
Fri 15 14:21:31
Fri 15 14:22:01
Fri 15 14:22:16
Fri 15 14:22:31
Fri 15 14:23:01
Fri 15 14:23:16
Fri 15 14:23:31
Fri 15 14:24:01
Fri 15 14:24:16
Fri 15 14:24:31
Fri 15 14:25:01
Fri 15 14:25:16
Fri 15 14:25:31
Fri 15 14:26:01
Fri 15 14:26:16
Fri 15 14:26:31
Fri 15 14:27:01
Fri 15 14:27:16
Fri 15 14:27:31
Fri 15 14:28:01
Fri 15 14:28:16
Fri 15 14:28:31
Fri 15 14:29:01
Fri 15 14:29:16
Fri 15 14:29:31
Fri 15 14:30:01
Fri 15 14:30:16
Fri 15 14:30:31
Fri 15 14:31:01
Fri 15 14:31:16
Fri 15 14:31:31
Fri 15 14:32:01
Fri 15 14:32:16
Fri 15 14:32:31
Fri 15 14:33:01
Fri 15 14:33:16
Fri 15 14:33:31
Fri 15 14:34:01
Fri 15 14:34:16
Fri 15 14:34:31
Fri 15 14:35:01
Fri 15 14:35:16
Fri 15 14:35:31
Fri 15 14:36:01
Fri 15 14:36:16
Fri 15 14:36:31
Fri 15 14:37:01
Fri 15 14:37:16
Fri 15 14:37:31
Fri 15 14:38:01
Fri 15 14:38:16
Fri 15 14:38:31
Fri 15 14:39:01
Fri 15 14:39:16
Fri 15 14:39:31
Fri 15 14:40:01
Fri 15 14:40:16
Fri 15 14:40:31
Fri 15 14:41:01
Fri 15 14:41:16
Fri 15 14:41:31
Fri 15 14:42:01
Fri 15 14:42:16
Fri 15 14:42:31
Fri 15 14:43:01
Fri 15 14:43:16
Fri 15 14:43:31
Fri 15 14:44:01
Fri 15 14:44:16
Fri 15 14:44:31
Fri 15 14:45:01
Fri 15 14:45:17
Fri 15 14:45:32
Fri 15 14:46:01
Fri 15 14:46:16
Fri 15 14:46:31
Fri 15 14:47:01
Fri 15 14:47:16
Fri 15 14:47:31
Fri 15 14:48:01
Fri 15 14:48:16
Fri 15 14:48:31
Fri 15 14:49:01
Fri 15 14:49:16
Fri 15 14:49:31
Fri 15 14:50:01
Fri 15 14:50:16
Fri 15 14:50:31
Fri 15 14:51:01
Fri 15 14:51:16
Fri 15 14:51:31
Fri 15 14:52:01
Fri 15 14:52:16
Fri 15 14:52:31
Fri 15 14:53:01
Fri 15 14:53:16
Fri 15 14:53:31
Fri 15 14:54:01
Fri 15 14:54:16
Fri 15 14:54:31
Fri 15 14:55:01
Fri 15 14:55:16
Fri 15 14:55:31
Fri 15 14:56:01
Fri 15 14:56:16
Fri 15 14:56:31
Fri 15 14:57:01
Fri 15 14:57:16
Fri 15 14:57:31
Fri 15 14:58:01
Fri 15 14:58:16
Fri 15 14:58:31
Fri 15 14:59:01
Fri 15 14:59:17
Fri 15 14:59:32
Fri 15 15:00:01
Fri 15 15:00:16
Fri 15 15:00:31
Fri 15 15:01:01
Fri 15 15:01:16
Fri 15 15:01:31
Fri 15 15:02:01
Fri 15 15:02:16
Fri 15 15:02:31
Fri 15 15:03:01
Fri 15 15:03:16
Fri 15 15:03:31
Fri 15 15:04:01
Fri 15 15:04:16
Fri 15 15:04:31
Fri 15 15:05:01
Fri 15 15:05:16
Fri 15 15:05:31
Mon 04 16:48:01
Mon 04 16:48:16
Sun 17 12:33:30
Sun 17 12:33:45
Sun 17 12:34:00
Sun 17 12:34:01
Sun 17 12:34:15
Sun 17 12:34:16
Sun 17 12:34:31
Sun 17 12:35:01
Sun 17 12:35:16
Sun 17 12:35:31
Sun 17 12:36:01
Sun 17 12:36:16
Sun 17 12:36:31
Sun 17 12:37:01
Sun 17 12:37:16
Sun 17 12:37:31
Sun 17 12:38:01
Sun 17 12:38:16
Sun 17 12:38:31
Sun 17 12:39:01
Sun 17 12:39:16
Sun 17 12:39:31
Sun 17 12:40:01
Sun 17 12:40:16
Sun 17 12:40:31
Sun 17 12:41:01
Sun 17 12:41:16
Sun 17 12:41:31
Sun 17 12:42:01
Sun 17 12:42:16
Sun 17 12:42:31
Sun 17 12:43:01
Sun 17 12:43:16
Sun 17 12:43:31
Sun 17 12:44:01
Sun 17 12:44:16
Sun 17 12:44:31
Sun 17 12:45:01
Sun 17 12:45:16
Sun 17 12:45:31
Sun 17 12:46:01
Sun 17 12:46:17
Sun 17 12:46:32
Sun 17 12:47:01
Sun 17 12:47:16
Sun 17 12:47:31
Sun 17 12:48:01
Sun 17 12:48:16
Sun 17 12:48:31
Sun 17 12:49:01
Sun 17 12:49:16
Sun 17 12:49:31
Sun 17 12:50:01
Sun 17 12:50:16
Sun 17 12:50:31
Sun 17 12:51:01
Sun 17 12:51:16
Sun 17 12:51:31
Sun 17 12:52:01
Sun 17 12:52:16
Sun 17 12:52:31
Sun 17 12:53:01
Sun 17 12:53:16
Sun 17 12:53:31
Sun 17 12:54:01
Sun 17 12:54:16
Sun 17 12:54:31
Sun 17 12:55:01
Sun 17 12:55:16
Sun 17 12:55:31
Sun 17 12:56:01
Sun 17 12:56:16
Sun 17 12:56:31
Sun 17 12:57:01
Sun 17 12:57:16
Sun 17 12:57:32
Sun 17 12:58:01
Sun 17 12:58:16
Sun 17 12:58:31
Sun 17 12:59:01
Sun 17 12:59:16
Sun 17 12:59:31
Sun 17 13:00:01
Sun 17 13:00:16
Sun 17 13:00:31
Sun 17 13:01:01
Sun 17 13:01:16
Sun 17 13:01:31
Sun 17 13:02:01
Sun 17 13:02:16
Sun 17 13:02:31
Sun 17 13:03:01
Sun 17 13:03:16
Sun 17 13:03:31
Sun 17 13:04:01
Sun 17 13:04:16
Sun 17 13:04:31
Sun 17 13:05:01
Sun 17 13:05:16
Sun 17 13:05:31
Sun 17 13:06:01
Sun 17 13:06:16
Sun 17 13:06:31
Sun 17 13:07:01
Sun 17 13:07:16
Sun 17 13:07:31
Sun 17 13:08:01
Sun 17 13:08:16
Sun 17 13:08:32
Sun 17 13:09:01
Sun 17 13:09:16
Sun 17 13:09:31
Sun 17 13:10:01
Sun 17 13:10:16
Sun 17 13:10:31
Sun 17 13:11:01
Sun 17 13:11:16
Sun 17 13:11:31
Sun 17 13:12:01
Sun 17 13:12:16
Sun 17 13:12:31
Sun 17 13:13:01
Sun 17 13:13:16
Sun 17 13:13:31
Sun 17 13:14:01
Sun 17 13:14:16
Sun 17 13:14:31
Sun 17 13:15:02
Sun 17 13:15:17
Sun 17 13:15:32
Sun 17 13:16:01
Sun 17 13:16:16
Sun 17 13:16:31
Sun 17 13:17:01
Sun 17 13:17:16
Sun 17 13:17:31
Sun 17 13:18:01
Sun 17 13:18:16
Sun 17 13:18:31
Sun 17 13:19:01
Sun 17 13:19:16
Sun 17 13:19:31
Sun 17 13:20:01
Sun 17 13:20:16
Sun 17 13:20:31
Sun 17 13:21:01
Sun 17 13:21:17
Sun 17 13:21:32
Sun 17 13:22:48
Sun 17 13:23:01
Sun 17 13:23:03
Sun 17 13:23:16
Sun 17 13:23:18
Sun 17 13:23:31
Sun 17 13:25:56
Sun 17 13:26:06
Sun 17 13:26:11
Sun 17 13:26:16
Sun 17 13:26:21
Sun 17 13:26:26
Sun 17 13:26:26
Sun 17 13:26:26
Sun 17 13:26:31
Sun 17 13:26:36
Sun 17 13:26:41
Sun 17 13:26:41
Sun 17 13:26:46
Sun 17 13:26:56
Sun 17 13:26:56
Sun 17 13:27:01
Sun 17 13:27:16
Sun 17 13:27:31
Sun 17 15:40:14
Sun 17 15:40:29
Sun 17 15:40:44
Sun 17 15:41:01
Sun 17 15:41:16
Sun 17 15:41:31
Sun 17 15:42:01
Sun 17 15:42:16
Sun 17 15:42:31
Sun 17 15:42:46
Sun 17 15:43:01
Sun 17 15:43:16
Sun 17 15:43:31
Sun 17 15:43:46
Sun 17 15:44:01
Sun 17 15:44:16
Sun 17 15:44:31
Sun 17 15:44:46
Sun 17 15:45:01
Sun 17 15:45:16
Sun 17 15:45:31
Sun 17 15:45:46
Sun 17 15:46:01
Sun 17 15:46:16
Sun 17 15:46:31
Sun 17 15:46:46
Sun 17 15:47:01
Sun 17 15:47:16
Sun 17 15:47:31
Sun 17 15:47:46
Sun 17 15:48:01
Sun 17 15:48:16
Sun 17 15:48:31
Sun 17 15:48:46
Sun 17 15:49:01
Sun 17 15:49:16
Sun 17 15:49:31
Sun 17 15:49:46
Sun 17 15:50:01
Sun 17 15:50:16
Sun 17 15:50:31
Sun 17 15:50:46
Sun 17 15:51:01
Sun 17 15:51:16
Sun 17 15:51:31
Sun 17 15:51:46
Sun 17 15:52:01
Sun 17 15:52:16
Sun 17 15:53:19
Sun 17 15:53:34
Sun 17 15:53:49
Sun 17 15:54:01
Sun 17 15:54:04
Sun 17 15:54:16
Sun 17 15:54:19
Sun 17 15:54:31
Sun 17 15:54:34
Sun 17 15:54:46
Sun 17 15:55:01
Sun 17 15:55:16
Sun 17 15:55:31
Sun 17 15:55:46
Sun 17 15:56:01
Sun 17 15:56:16
Sun 17 15:56:31
Sun 17 15:56:46
Sun 17 15:57:01
Sun 17 15:57:16
Sun 17 15:57:31
Sun 17 15:57:46
Sun 17 15:58:01
Sun 17 15:58:16
Sun 17 15:58:31
Sun 17 15:58:46
Sun 17 15:59:01
Sun 17 15:59:16
Sun 17 15:59:31
Sun 17 15:59:46
Sun 17 16:00:01
Sun 17 16:00:16
Sun 17 16:00:31
Sun 17 16:00:46
Sun 17 16:01:01
Sun 17 16:01:16
Sun 17 16:01:31
Sun 17 16:01:47
Sun 17 16:02:02
Sun 17 16:02:17
Sun 17 16:02:32
Sun 17 16:02:47
Sun 17 16:03:01
Sun 17 16:03:16
Sun 17 16:03:31
Sun 17 16:03:46
Sun 17 16:04:01
Sun 17 16:04:16
Sun 17 16:04:31
Sun 17 16:05:33
Sun 17 16:05:48
Sun 17 16:06:01
Sun 17 16:06:03
Sun 17 16:06:16
Sun 17 16:06:18
Sun 17 16:06:31
Sun 17 16:06:33
Sun 17 16:06:46
Sun 17 16:07:01
Sun 17 16:07:16
Sun 17 16:07:31
Sun 17 16:07:46
Sun 17 16:08:01
Sun 17 16:08:16
Sun 17 16:08:31
Sun 17 16:08:46
Sun 17 16:09:01
Sun 17 16:09:16
Sun 17 16:09:31
Sun 17 16:09:46
Sun 17 16:10:01
Sun 17 16:10:16
Sun 17 16:10:31
Sun 17 16:10:46
Sun 17 16:11:01
